Sentiment Analysis Demo
…
yelp

## # A tibble: 10,000 x 9
##    review_id user_id business_id stars date       text  useful funny  cool
##    <chr>     <chr>   <chr>       <int> <date>     <chr>  <int> <int> <int>
##  1 GQFbfIkS 9Q4DDf S9ufhGRada     5 2016-05-19 My f      0     0     0
##  2 tLA7km4G 3H7-iH Gvj_nneJoA     5 2010-02-01 "Suc      3     0     0
##  3 5SSFQ68D qMhjVL TkSUCMtrb4     1 2016-06-05 "I r      4     0     2
##  4 tiDJdjBF m-wIh1 8yYDM0s1w7     1 2016-08-08 Rude      5     0     0
##  5 BAgVukoS D4M-u9 kosTPb88O4     5 2012-04-06 Exce      0     0     0
##  6 LfO-NqRD DnuG7T frC66U_YIZ     2 2013-05-17 Habe      0     0     0
##  7 T-FNsNYR VNYmMD c1siAPW4kx     1 2016-02-25 "I r      2     2     2
##  8 vkBpqgSK ujISM2 uChTCA6MsL     4 2013-09-01 This      0     0     0
##  9 5RWhv3wf R5usoA vdloJPM3bS     5 2014-11-08 Exce      0     0     0
## 10 e7WVftlh _vZmA3 JpBx7K0z5P     5 2015-07-25 Orde      0     0     0
## # ... with 9,990 more rows

Lets get rid of variables that we are not interested in for now:

yelp <- select(yelp, -user_id, -business_id, -date,
                -useful, -funny, -cool)
yelp

## # A tibble: 10,000 x 3
##    review_id              stars text                                      
##    <chr>                  <int> <chr>                                     
##  1 GQFbfIkSyDcXA_vCcyQoxQ     5 My family does an annual Vegas trip each 
##  2 tLA7km4GJ79UE3tZkgCJzA     5 "Such a great place to get away and do wo
##  3 5SSFQ68D_PhWD18Ve5t8XQ     1 "I really regret letting my 73 year old m
##  4 tiDJdjBFuRL69INaHipCzg     1 Rude staff. Small tight spaces. Really ba
##  5 BAgVukoSlHTl9J4XVnhH5w     5 Excellent service, excellent food.  You m
##  6 LfO-NqRDmeVx3IyATDV_xg     2 Habe heute ber Lieferheld bei Viet Quan 
##  7 T-FNsNYRZUgNMLr0ILbLqw     1 "I regularly visit a business in the shop
##  8 vkBpqgSKTvw-kmDRQHeu8w     4 This place is soooooooooooo yum!! One dow
##  9 5RWhv3wfLKOWl90GB8BhKA     5 Excellent beer, food, location and staff.
## 10 e7WVftlhuCFzMrbu0ZLocQ     5 Ordered a simple pepperoni pizza and some
## # ... with 9,990 more rows

Using the tidytext workflow, lets tokenize all the texts, but keeping the review_id and stars as index information:

tokens <- yelp %>% unnest_tokens(word, text)
tokens

## # A tibble: 1,133,728 x 3
##    review_id              stars word  
##    <chr>                  <int> <chr> 
##  1 GQFbfIkSyDcXA_vCcyQoxQ     5 my    
##  2 GQFbfIkSyDcXA_vCcyQoxQ     5 family
##  3 GQFbfIkSyDcXA_vCcyQoxQ     5 does  
##  4 GQFbfIkSyDcXA_vCcyQoxQ     5 an    
##  5 GQFbfIkSyDcXA_vCcyQoxQ     5 annual
##  6 GQFbfIkSyDcXA_vCcyQoxQ     5 vegas 
##  7 GQFbfIkSyDcXA_vCcyQoxQ     5 trip  
##  8 GQFbfIkSyDcXA_vCcyQoxQ     5 each  
##  9 GQFbfIkSyDcXA_vCcyQoxQ     5 april 
## 10 GQFbfIkSyDcXA_vCcyQoxQ     5 and   
## # ... with 1,133,718 more rows

Lets get rid of stop words, that is, function words, highly frequent adverbials etc.

data("stop_words") # comes with tidytext
tokens <- anti_join(tokens, stop_words)

## Joining, by = "word"

tokens

## # A tibble: 405,133 x 3
##    review_id              stars word  
##    <chr>                  <int> <chr> 
##  1 GQFbfIkSyDcXA_vCcyQoxQ     5 family
##  2 GQFbfIkSyDcXA_vCcyQoxQ     5 annual
##  3 GQFbfIkSyDcXA_vCcyQoxQ     5 vegas 
##  4 GQFbfIkSyDcXA_vCcyQoxQ     5 trip  
##  5 GQFbfIkSyDcXA_vCcyQoxQ     5 april 
##  6 GQFbfIkSyDcXA_vCcyQoxQ     5 dos   
##  7 GQFbfIkSyDcXA_vCcyQoxQ     5 break 
##  8 GQFbfIkSyDcXA_vCcyQoxQ     5 table 
##  9 GQFbfIkSyDcXA_vCcyQoxQ     5 games 
## 10 GQFbfIkSyDcXA_vCcyQoxQ     5 slots 
## # ... with 405,123 more rows
…
Lets take only words that occurred at least 10 times (this is a pretty arbitrary threshold, you may want to think of a better one):

avg_star <- avg_star %>% filter(n >= 10)
nrow(avg_star)

## [1] 5085

We are left with ~5000 some words.

Lets look at those words that occur in reviews with really high or low average review stars:

arrange(avg_star, stars)

## # A tibble: 5,085 x 3
##    word               n stars
##    <chr>          <int> <dbl>
##  1 screws            10  1.2 
##  2 scam              20  1.25
##  3 refund            64  1.33
##  4 unprofessional    60  1.33
##  5 disgusted         11  1.36
##  6 shady             21  1.38
##  7 lied              18  1.39
##  8 visa              10  1.4 
##  9 lab               19  1.42
## 10 yelled            14  1.43
## # ... with 5,075 more rows

Makes sense  these are all pretty bad word. visa is an interesting one

arrange(avg_star, desc(stars))

## # A tibble: 5,085 x 3
##    word          n stars
##    <chr>     <int> <dbl>
##  1 tattoo       21  5   
##  2 airsoft      12  5   
##  3 exercises    11  5   
##  4 jeep         11  5   
##  5 nate         11  5   
##  6 brittany     10  5   
##  7 flawless     10  5   
##  8 propane      10  5   
##  9 painless     17  4.94
## 10 jennifer     15  4.93
## # ... with 5,075 more rows
…
For this, lets use a standard sentiment lexicon, the Bing et al. one this is pretty coarse. Its relatively small and has a categorical scheme (positive / negative). While that may not correspond to your theory of emotional valence (which may be continuous), dealing with words that are treated as EITHER positive OR negative is sometimes useful for presentatinal purporses.

The bing lexicon comes with the sentimentr package that is part of tidytext, and it can be retrieved via the get_sentiments() function:

bing <- get_sentiments('bing')

Join this with the tokens data frame:

bingtokens <- inner_join(tokens, bing)

## Joining, by = "word"

bingtokens

## # A tibble: 64,277 x 4
##    review_id              stars word      sentiment
##    <chr>                  <int> <chr>     <chr>    
##  1 GQFbfIkSyDcXA_vCcyQoxQ     5 break     negative 
##  2 GQFbfIkSyDcXA_vCcyQoxQ     5 fun       positive 
##  3 GQFbfIkSyDcXA_vCcyQoxQ     5 friendly  positive 
##  4 GQFbfIkSyDcXA_vCcyQoxQ     5 fun       positive 
##  5 GQFbfIkSyDcXA_vCcyQoxQ     5 honest    positive 
##  6 GQFbfIkSyDcXA_vCcyQoxQ     5 enjoyed   positive 
##  7 GQFbfIkSyDcXA_vCcyQoxQ     5 hilarious positive 
##  8 GQFbfIkSyDcXA_vCcyQoxQ     5 enjoyed   positive 
##  9 GQFbfIkSyDcXA_vCcyQoxQ     5 recommend positive 
## 10 GQFbfIkSyDcXA_vCcyQoxQ     5 bonus     positive 
## # ... with 64,267 more rows
…
